[
  {
    "lat": "21.6049701",
    "lng": "39.1747263"
  },
  {
    "lat": "21.6049701",
    "lng": "39.1747263"
  },
  {
    "lat": "21.581799",
    "lng": "39.178531"
  },
  {
    "lat": "21.595657",
    "lng": "39.1745683"
  }
]
